%YAML 1.1
%TAG !u! tag:unity3d.com,2011:
--- !u!74 &7400000
AnimationClip:
  m_ObjectHideFlags: 0
  m_CorrespondingSourceObject: {fileID: 0}
  m_PrefabInstance: {fileID: 0}
  m_PrefabAsset: {fileID: 0}
  m_Name: GhostLeft
  serializedVersion: 6
  m_Legacy: 0
  m_Compressed: 0
  m_UseHighQualityCurve: 1
  m_RotationCurves: []
  m_CompressedRotationCurves: []
  m_EulerCurves: []
  m_PositionCurves: []
  m_ScaleCurves: []
  m_FloatCurves:
  - curve:
      serializedVersion: 2
      m_Curve:
      - serializedVersion: 3
        time: 0
        value: 1
        inSlope: Infinity
        outSlope: Infinity
        tangentMode: 103
        weightedMode: 0
        inWeight: 0
        outWeight: 0
      m_PreInfinity: 2
      m_PostInfinity: 2
      m_RotationOrder: 4
    attribute: m_FlipX
    path: 
    classID: 212
    script: {fileID: 0}
  m_PPtrCurves:
  - curve:
    - time: 0
      value: {fileID: 21300000, guid: e8b48a0766c835a4cbc459818ad4490d, type: 3}
    - time: 0.033333335
      value: {fileID: 21300000, guid: 1f5f87648d268a04f9cb670421443c95, type: 3}
    - time: 0.06666667
      value: {fileID: 21300000, guid: ba64ab4bcbf88d84aa5fee8c39c1a8e9, type: 3}
    - time: 0.1
      value: {fileID: 21300000, guid: 9a5b4229a86eb1b4f8e353f129409c38, type: 3}
    - time: 0.13333334
      value: {fileID: 21300000, guid: 191c2aba52e5b7d40affef70ee516082, type: 3}
    - time: 0.16666667
      value: {fileID: 21300000, guid: 7caf2268184cebb4fa1a080bc01bc69a, type: 3}
    - time: 0.2
      value: {fileID: 21300000, guid: 949235e81ec25654da7a2bf27545bbbb, type: 3}
    - time: 0.23333333
      value: {fileID: 21300000, guid: 51b3a9ca3076a384db290b1e16b221f5, type: 3}
    - time: 0.26666668
      value: {fileID: 21300000, guid: be85714b8ecc9c14b9806ea4f05f4130, type: 3}
    - time: 0.3
      value: {fileID: 21300000, guid: 6507ab7ed38284943b0a754a8cd1c8f4, type: 3}
    - time: 0.33333334
      value: {fileID: 21300000, guid: b3273597ee2c30c479e8c33a20720a4c, type: 3}
    - time: 0.36666667
      value: {fileID: 21300000, guid: 4eebb6d62dd831240a226a893e872253, type: 3}
    - time: 0.4
      value: {fileID: 21300000, guid: 35e50edb4565d984db707333725f55a9, type: 3}
    - time: 0.43333334
      value: {fileID: 21300000, guid: 63bd5d4b6142bab448dd764156a0238c, type: 3}
    - time: 0.46666667
      value: {fileID: 21300000, guid: 07873149e57bae2428224ef98ff481e7, type: 3}
    - time: 0.5
      value: {fileID: 21300000, guid: c756bdb44fcf2b047b3deb48c93dd6ea, type: 3}
    - time: 0.53333336
      value: {fileID: 21300000, guid: 5be924dda95122e4aac0a530ce4aff21, type: 3}
    - time: 0.56666666
      value: {fileID: 21300000, guid: 60e1c524e21605e4ca98bc36e36a9153, type: 3}
    - time: 0.6
      value: {fileID: 21300000, guid: 14fa8523bbcc38049811f66c6796932f, type: 3}
    - time: 0.6333333
      value: {fileID: 21300000, guid: 1e350d3f86e134349acb3f5bbd96589a, type: 3}
    - time: 0.6666667
      value: {fileID: 21300000, guid: 38c5dda202a4e21408819398fb982bcd, type: 3}
    attribute: m_Sprite
    path: 
    classID: 212
    script: {fileID: 0}
  m_SampleRate: 60
  m_WrapMode: 0
  m_Bounds:
    m_Center: {x: 0, y: 0, z: 0}
    m_Extent: {x: 0, y: 0, z: 0}
  m_ClipBindingConstant:
    genericBindings:
    - serializedVersion: 2
      path: 0
      attribute: 555744692
      script: {fileID: 0}
      typeID: 212
      customType: 0
      isPPtrCurve: 0
    - serializedVersion: 2
      path: 0
      attribute: 0
      script: {fileID: 0}
      typeID: 212
      customType: 23
      isPPtrCurve: 1
    pptrCurveMapping:
    - {fileID: 21300000, guid: e8b48a0766c835a4cbc459818ad4490d, type: 3}
    - {fileID: 21300000, guid: 1f5f87648d268a04f9cb670421443c95, type: 3}
    - {fileID: 21300000, guid: ba64ab4bcbf88d84aa5fee8c39c1a8e9, type: 3}
    - {fileID: 21300000, guid: 9a5b4229a86eb1b4f8e353f129409c38, type: 3}
    - {fileID: 21300000, guid: 191c2aba52e5b7d40affef70ee516082, type: 3}
    - {fileID: 21300000, guid: 7caf2268184cebb4fa1a080bc01bc69a, type: 3}
    - {fileID: 21300000, guid: 949235e81ec25654da7a2bf27545bbbb, type: 3}
    - {fileID: 21300000, guid: 51b3a9ca3076a384db290b1e16b221f5, type: 3}
    - {fileID: 21300000, guid: be85714b8ecc9c14b9806ea4f05f4130, type: 3}
    - {fileID: 21300000, guid: 6507ab7ed38284943b0a754a8cd1c8f4, type: 3}
    - {fileID: 21300000, guid: b3273597ee2c30c479e8c33a20720a4c, type: 3}
    - {fileID: 21300000, guid: 4eebb6d62dd831240a226a893e872253, type: 3}
    - {fileID: 21300000, guid: 35e50edb4565d984db707333725f55a9, type: 3}
    - {fileID: 21300000, guid: 63bd5d4b6142bab448dd764156a0238c, type: 3}
    - {fileID: 21300000, guid: 07873149e57bae2428224ef98ff481e7, type: 3}
    - {fileID: 21300000, guid: c756bdb44fcf2b047b3deb48c93dd6ea, type: 3}
    - {fileID: 21300000, guid: 5be924dda95122e4aac0a530ce4aff21, type: 3}
    - {fileID: 21300000, guid: 60e1c524e21605e4ca98bc36e36a9153, type: 3}
    - {fileID: 21300000, guid: 14fa8523bbcc38049811f66c6796932f, type: 3}
    - {fileID: 21300000, guid: 1e350d3f86e134349acb3f5bbd96589a, type: 3}
    - {fileID: 21300000, guid: 38c5dda202a4e21408819398fb982bcd, type: 3}
  m_AnimationClipSettings:
    serializedVersion: 2
    m_AdditiveReferencePoseClip: {fileID: 0}
    m_AdditiveReferencePoseTime: 0
    m_StartTime: 0
    m_StopTime: 0.68333334
    m_OrientationOffsetY: 0
    m_Level: 0
    m_CycleOffset: 0
    m_HasAdditiveReferencePose: 0
    m_LoopTime: 1
    m_LoopBlend: 0
    m_LoopBlendOrientation: 0
    m_LoopBlendPositionY: 0
    m_LoopBlendPositionXZ: 0
    m_KeepOriginalOrientation: 0
    m_KeepOriginalPositionY: 1
    m_KeepOriginalPositionXZ: 0
    m_HeightFromFeet: 0
    m_Mirror: 0
  m_EditorCurves:
  - curve:
      serializedVersion: 2
      m_Curve:
      - serializedVersion: 3
        time: 0
        value: 1
        inSlope: Infinity
        outSlope: Infinity
        tangentMode: 103
        weightedMode: 0
        inWeight: 0
        outWeight: 0
      m_PreInfinity: 2
      m_PostInfinity: 2
      m_RotationOrder: 4
    attribute: m_FlipX
    path: 
    classID: 212
    script: {fileID: 0}
  m_EulerEditorCurves: []
  m_HasGenericRootTransform: 0
  m_HasMotionFloatCurves: 0
  m_Events: []
