%YAML 1.1
%TAG !u! tag:unity3d.com,2011:
--- !u!74 &7400000
AnimationClip:
  m_ObjectHideFlags: 0
  m_CorrespondingSourceObject: {fileID: 0}
  m_PrefabInstance: {fileID: 0}
  m_PrefabAsset: {fileID: 0}
  m_Name: GhostMoveUp
  serializedVersion: 6
  m_Legacy: 0
  m_Compressed: 0
  m_UseHighQualityCurve: 1
  m_RotationCurves: []
  m_CompressedRotationCurves: []
  m_EulerCurves: []
  m_PositionCurves: []
  m_ScaleCurves: []
  m_FloatCurves: []
  m_PPtrCurves:
  - curve:
    - time: 0
      value: {fileID: 21300000, guid: 95370fcb68d63f644bc129859e8e7070, type: 3}
    - time: 0.033333335
      value: {fileID: 21300000, guid: 9b786bb183dc5274eb187ffa86a89ca1, type: 3}
    - time: 0.06666667
      value: {fileID: 21300000, guid: c70ab27fc620dae4c8efe8d340d88070, type: 3}
    - time: 0.1
      value: {fileID: 21300000, guid: 6a4849847dd638649a8aca64a9aeba2a, type: 3}
    - time: 0.13333334
      value: {fileID: 21300000, guid: 00ee1a0a4b36b1c44916d1fa722effa0, type: 3}
    - time: 0.16666667
      value: {fileID: 21300000, guid: 16646992f4b34ee46949f6fc7d4c6e88, type: 3}
    - time: 0.2
      value: {fileID: 21300000, guid: b0efd5457eacbcc4dbfa8534b1c7c75c, type: 3}
    - time: 0.23333333
      value: {fileID: 21300000, guid: 4cc517d4071f8894b9e6e2b3b9b2c072, type: 3}
    - time: 0.26666668
      value: {fileID: 21300000, guid: cdc6a745158112c4fa17388da24c5d99, type: 3}
    - time: 0.3
      value: {fileID: 21300000, guid: f8745fb9f597e494593aa2455c8985d5, type: 3}
    - time: 0.33333334
      value: {fileID: 21300000, guid: 03ad4b120a937d14aa1f8cf76275288b, type: 3}
    - time: 0.36666667
      value: {fileID: 21300000, guid: ab896d457ba04b340b06f843041ee168, type: 3}
    - time: 0.4
      value: {fileID: 21300000, guid: 1c6904ac61cf1c44dab6db45d71c1246, type: 3}
    - time: 0.43333334
      value: {fileID: 21300000, guid: fb7853baedc4de441be98ba70611cc1e, type: 3}
    - time: 0.46666667
      value: {fileID: 21300000, guid: f4862552f44a06f46a3936e0e3bee516, type: 3}
    - time: 0.5
      value: {fileID: 21300000, guid: 1a3338d5576dcf448937f6330fb1ff9b, type: 3}
    - time: 0.53333336
      value: {fileID: 21300000, guid: 00e511c9b18c4104191506e5ba1f2be9, type: 3}
    - time: 0.56666666
      value: {fileID: 21300000, guid: 6799213963393ac439506e101c4140c7, type: 3}
    - time: 0.6
      value: {fileID: 21300000, guid: 4099893adb66fd24fa34bb1b49173c6c, type: 3}
    - time: 0.6333333
      value: {fileID: 21300000, guid: 9660d7c3dce48e34896867d5bf582f7f, type: 3}
    - time: 0.6666667
      value: {fileID: 21300000, guid: 4e75474e74d7a7741bddff9324a02a15, type: 3}
    - time: 0.7
      value: {fileID: 21300000, guid: 94653861ee81999468a986dd531edb11, type: 3}
    - time: 0.73333335
      value: {fileID: 21300000, guid: 8a43e4836bdbc9c4d92cda1ad94eea7d, type: 3}
    - time: 0.76666665
      value: {fileID: 21300000, guid: e12acbc4c600b314f8d21989c995beec, type: 3}
    - time: 0.8
      value: {fileID: 21300000, guid: 0ff34bfba0464cb438d19f708c357042, type: 3}
    attribute: m_Sprite
    path: 
    classID: 212
    script: {fileID: 0}
  m_SampleRate: 60
  m_WrapMode: 0
  m_Bounds:
    m_Center: {x: 0, y: 0, z: 0}
    m_Extent: {x: 0, y: 0, z: 0}
  m_ClipBindingConstant:
    genericBindings:
    - serializedVersion: 2
      path: 0
      attribute: 0
      script: {fileID: 0}
      typeID: 212
      customType: 23
      isPPtrCurve: 1
    pptrCurveMapping:
    - {fileID: 21300000, guid: 95370fcb68d63f644bc129859e8e7070, type: 3}
    - {fileID: 21300000, guid: 9b786bb183dc5274eb187ffa86a89ca1, type: 3}
    - {fileID: 21300000, guid: c70ab27fc620dae4c8efe8d340d88070, type: 3}
    - {fileID: 21300000, guid: 6a4849847dd638649a8aca64a9aeba2a, type: 3}
    - {fileID: 21300000, guid: 00ee1a0a4b36b1c44916d1fa722effa0, type: 3}
    - {fileID: 21300000, guid: 16646992f4b34ee46949f6fc7d4c6e88, type: 3}
    - {fileID: 21300000, guid: b0efd5457eacbcc4dbfa8534b1c7c75c, type: 3}
    - {fileID: 21300000, guid: 4cc517d4071f8894b9e6e2b3b9b2c072, type: 3}
    - {fileID: 21300000, guid: cdc6a745158112c4fa17388da24c5d99, type: 3}
    - {fileID: 21300000, guid: f8745fb9f597e494593aa2455c8985d5, type: 3}
    - {fileID: 21300000, guid: 03ad4b120a937d14aa1f8cf76275288b, type: 3}
    - {fileID: 21300000, guid: ab896d457ba04b340b06f843041ee168, type: 3}
    - {fileID: 21300000, guid: 1c6904ac61cf1c44dab6db45d71c1246, type: 3}
    - {fileID: 21300000, guid: fb7853baedc4de441be98ba70611cc1e, type: 3}
    - {fileID: 21300000, guid: f4862552f44a06f46a3936e0e3bee516, type: 3}
    - {fileID: 21300000, guid: 1a3338d5576dcf448937f6330fb1ff9b, type: 3}
    - {fileID: 21300000, guid: 00e511c9b18c4104191506e5ba1f2be9, type: 3}
    - {fileID: 21300000, guid: 6799213963393ac439506e101c4140c7, type: 3}
    - {fileID: 21300000, guid: 4099893adb66fd24fa34bb1b49173c6c, type: 3}
    - {fileID: 21300000, guid: 9660d7c3dce48e34896867d5bf582f7f, type: 3}
    - {fileID: 21300000, guid: 4e75474e74d7a7741bddff9324a02a15, type: 3}
    - {fileID: 21300000, guid: 94653861ee81999468a986dd531edb11, type: 3}
    - {fileID: 21300000, guid: 8a43e4836bdbc9c4d92cda1ad94eea7d, type: 3}
    - {fileID: 21300000, guid: e12acbc4c600b314f8d21989c995beec, type: 3}
    - {fileID: 21300000, guid: 0ff34bfba0464cb438d19f708c357042, type: 3}
  m_AnimationClipSettings:
    serializedVersion: 2
    m_AdditiveReferencePoseClip: {fileID: 0}
    m_AdditiveReferencePoseTime: 0
    m_StartTime: 0
    m_StopTime: 0.81666666
    m_OrientationOffsetY: 0
    m_Level: 0
    m_CycleOffset: 0
    m_HasAdditiveReferencePose: 0
    m_LoopTime: 1
    m_LoopBlend: 0
    m_LoopBlendOrientation: 0
    m_LoopBlendPositionY: 0
    m_LoopBlendPositionXZ: 0
    m_KeepOriginalOrientation: 0
    m_KeepOriginalPositionY: 1
    m_KeepOriginalPositionXZ: 0
    m_HeightFromFeet: 0
    m_Mirror: 0
  m_EditorCurves: []
  m_EulerEditorCurves: []
  m_HasGenericRootTransform: 0
  m_HasMotionFloatCurves: 0
  m_Events: []
