%YAML 1.1
%TAG !u! tag:unity3d.com,2011:
--- !u!74 &7400000
AnimationClip:
  m_ObjectHideFlags: 0
  m_CorrespondingSourceObject: {fileID: 0}
  m_PrefabInstance: {fileID: 0}
  m_PrefabAsset: {fileID: 0}
  m_Name: GhostAttackUpLeft
  serializedVersion: 6
  m_Legacy: 0
  m_Compressed: 0
  m_UseHighQualityCurve: 1
  m_RotationCurves: []
  m_CompressedRotationCurves: []
  m_EulerCurves: []
  m_PositionCurves: []
  m_ScaleCurves: []
  m_FloatCurves:
  - curve:
      serializedVersion: 2
      m_Curve:
      - serializedVersion: 3
        time: 0
        value: 1
        inSlope: Infinity
        outSlope: Infinity
        tangentMode: 103
        weightedMode: 0
        inWeight: 0
        outWeight: 0
      - serializedVersion: 3
        time: 2.0166667
        value: 0
        inSlope: Infinity
        outSlope: Infinity
        tangentMode: 103
        weightedMode: 0
        inWeight: 0
        outWeight: 0
      m_PreInfinity: 2
      m_PostInfinity: 2
      m_RotationOrder: 4
    attribute: m_IsActive
    path: PointAttackUpLeft
    classID: 1
    script: {fileID: 0}
  - curve:
      serializedVersion: 2
      m_Curve:
      - serializedVersion: 3
        time: 0
        value: 1
        inSlope: Infinity
        outSlope: Infinity
        tangentMode: 103
        weightedMode: 0
        inWeight: 0
        outWeight: 0
      - serializedVersion: 3
        time: 2.0166667
        value: 0
        inSlope: Infinity
        outSlope: Infinity
        tangentMode: 103
        weightedMode: 0
        inWeight: 0
        outWeight: 0
      m_PreInfinity: 2
      m_PostInfinity: 2
      m_RotationOrder: 4
    attribute: m_FlipX
    path: 
    classID: 212
    script: {fileID: 0}
  m_PPtrCurves:
  - curve:
    - time: 0
      value: {fileID: 21300000, guid: 4a8d807d4a4e8a04497e00b973a7731b, type: 3}
    - time: 0.1
      value: {fileID: 21300000, guid: 83d0d60b6bbe54548a216a70169a3058, type: 3}
    - time: 0.2
      value: {fileID: 21300000, guid: b1a20692c084b274eb23ad87bcc0eabf, type: 3}
    - time: 0.3
      value: {fileID: 21300000, guid: 8727969628b9f074c9d3e741a39e4f60, type: 3}
    - time: 0.4
      value: {fileID: 21300000, guid: df321d6a8e044dd49a6899653574041a, type: 3}
    - time: 0.5
      value: {fileID: 21300000, guid: e1afa3b748549104183fa5476a80be74, type: 3}
    - time: 0.6
      value: {fileID: 21300000, guid: e970c2082fa97f14c879839b4f7e4904, type: 3}
    - time: 0.7
      value: {fileID: 21300000, guid: bb3b83ec68760f34288d63eee19a3398, type: 3}
    - time: 0.8
      value: {fileID: 21300000, guid: 80b43541a0c664b45a8eaa18bd08704d, type: 3}
    - time: 0.9
      value: {fileID: 21300000, guid: 46675bf5429a6774c8b3ed735054ec87, type: 3}
    - time: 1
      value: {fileID: 21300000, guid: 413129690689a8a43b7432dcc91f8c8a, type: 3}
    - time: 1.1
      value: {fileID: 21300000, guid: d68c9c1f24d65004384215ed267283cb, type: 3}
    - time: 1.2
      value: {fileID: 21300000, guid: 53b814cc32bb2a24c97914be73274747, type: 3}
    - time: 1.3
      value: {fileID: 21300000, guid: 050b3b7254964d84a86d44e051323304, type: 3}
    - time: 1.4
      value: {fileID: 21300000, guid: 3be724f3b8004f74bad94f6ae4e4a881, type: 3}
    - time: 1.5
      value: {fileID: 21300000, guid: b1fe22741089d8848bce5bd11b6fe165, type: 3}
    - time: 1.6
      value: {fileID: 21300000, guid: 400065478e0e0d34ab3c87912d0e67fe, type: 3}
    - time: 1.7
      value: {fileID: 21300000, guid: 14ef7670ab6f9df42aab453d1bde45fd, type: 3}
    - time: 1.8
      value: {fileID: 21300000, guid: 284d62c2aa780cc42b02de26beffa2d2, type: 3}
    - time: 1.9
      value: {fileID: 21300000, guid: 0ce88d6569fc3ec4b9fe282127293ece, type: 3}
    - time: 2
      value: {fileID: 21300000, guid: 5a1d71b37b1da7c4597ec926da47f367, type: 3}
    attribute: m_Sprite
    path: 
    classID: 212
    script: {fileID: 0}
  m_SampleRate: 60
  m_WrapMode: 0
  m_Bounds:
    m_Center: {x: 0, y: 0, z: 0}
    m_Extent: {x: 0, y: 0, z: 0}
  m_ClipBindingConstant:
    genericBindings:
    - serializedVersion: 2
      path: 3854975699
      attribute: 2086281974
      script: {fileID: 0}
      typeID: 1
      customType: 0
      isPPtrCurve: 0
    - serializedVersion: 2
      path: 0
      attribute: 555744692
      script: {fileID: 0}
      typeID: 212
      customType: 0
      isPPtrCurve: 0
    - serializedVersion: 2
      path: 0
      attribute: 0
      script: {fileID: 0}
      typeID: 212
      customType: 23
      isPPtrCurve: 1
    pptrCurveMapping:
    - {fileID: 21300000, guid: 4a8d807d4a4e8a04497e00b973a7731b, type: 3}
    - {fileID: 21300000, guid: 83d0d60b6bbe54548a216a70169a3058, type: 3}
    - {fileID: 21300000, guid: b1a20692c084b274eb23ad87bcc0eabf, type: 3}
    - {fileID: 21300000, guid: 8727969628b9f074c9d3e741a39e4f60, type: 3}
    - {fileID: 21300000, guid: df321d6a8e044dd49a6899653574041a, type: 3}
    - {fileID: 21300000, guid: e1afa3b748549104183fa5476a80be74, type: 3}
    - {fileID: 21300000, guid: e970c2082fa97f14c879839b4f7e4904, type: 3}
    - {fileID: 21300000, guid: bb3b83ec68760f34288d63eee19a3398, type: 3}
    - {fileID: 21300000, guid: 80b43541a0c664b45a8eaa18bd08704d, type: 3}
    - {fileID: 21300000, guid: 46675bf5429a6774c8b3ed735054ec87, type: 3}
    - {fileID: 21300000, guid: 413129690689a8a43b7432dcc91f8c8a, type: 3}
    - {fileID: 21300000, guid: d68c9c1f24d65004384215ed267283cb, type: 3}
    - {fileID: 21300000, guid: 53b814cc32bb2a24c97914be73274747, type: 3}
    - {fileID: 21300000, guid: 050b3b7254964d84a86d44e051323304, type: 3}
    - {fileID: 21300000, guid: 3be724f3b8004f74bad94f6ae4e4a881, type: 3}
    - {fileID: 21300000, guid: b1fe22741089d8848bce5bd11b6fe165, type: 3}
    - {fileID: 21300000, guid: 400065478e0e0d34ab3c87912d0e67fe, type: 3}
    - {fileID: 21300000, guid: 14ef7670ab6f9df42aab453d1bde45fd, type: 3}
    - {fileID: 21300000, guid: 284d62c2aa780cc42b02de26beffa2d2, type: 3}
    - {fileID: 21300000, guid: 0ce88d6569fc3ec4b9fe282127293ece, type: 3}
    - {fileID: 21300000, guid: 5a1d71b37b1da7c4597ec926da47f367, type: 3}
  m_AnimationClipSettings:
    serializedVersion: 2
    m_AdditiveReferencePoseClip: {fileID: 0}
    m_AdditiveReferencePoseTime: 0
    m_StartTime: 0
    m_StopTime: 2.0166667
    m_OrientationOffsetY: 0
    m_Level: 0
    m_CycleOffset: 0
    m_HasAdditiveReferencePose: 0
    m_LoopTime: 1
    m_LoopBlend: 0
    m_LoopBlendOrientation: 0
    m_LoopBlendPositionY: 0
    m_LoopBlendPositionXZ: 0
    m_KeepOriginalOrientation: 0
    m_KeepOriginalPositionY: 1
    m_KeepOriginalPositionXZ: 0
    m_HeightFromFeet: 0
    m_Mirror: 0
  m_EditorCurves:
  - curve:
      serializedVersion: 2
      m_Curve:
      - serializedVersion: 3
        time: 0
        value: 1
        inSlope: Infinity
        outSlope: Infinity
        tangentMode: 103
        weightedMode: 0
        inWeight: 0
        outWeight: 0
      - serializedVersion: 3
        time: 2.0166667
        value: 0
        inSlope: Infinity
        outSlope: Infinity
        tangentMode: 103
        weightedMode: 0
        inWeight: 0
        outWeight: 0
      m_PreInfinity: 2
      m_PostInfinity: 2
      m_RotationOrder: 4
    attribute: m_IsActive
    path: PointAttackUpLeft
    classID: 1
    script: {fileID: 0}
  - curve:
      serializedVersion: 2
      m_Curve:
      - serializedVersion: 3
        time: 0
        value: 1
        inSlope: Infinity
        outSlope: Infinity
        tangentMode: 103
        weightedMode: 0
        inWeight: 0
        outWeight: 0
      - serializedVersion: 3
        time: 2.0166667
        value: 0
        inSlope: Infinity
        outSlope: Infinity
        tangentMode: 103
        weightedMode: 0
        inWeight: 0
        outWeight: 0
      m_PreInfinity: 2
      m_PostInfinity: 2
      m_RotationOrder: 4
    attribute: m_FlipX
    path: 
    classID: 212
    script: {fileID: 0}
  m_EulerEditorCurves: []
  m_HasGenericRootTransform: 0
  m_HasMotionFloatCurves: 0
  m_Events: []
