%YAML 1.1
%TAG !u! tag:unity3d.com,2011:
--- !u!74 &7400000
AnimationClip:
  m_ObjectHideFlags: 0
  m_CorrespondingSourceObject: {fileID: 0}
  m_PrefabInstance: {fileID: 0}
  m_PrefabAsset: {fileID: 0}
  m_Name: GhostMoveRight
  serializedVersion: 6
  m_Legacy: 0
  m_Compressed: 0
  m_UseHighQualityCurve: 1
  m_RotationCurves: []
  m_CompressedRotationCurves: []
  m_EulerCurves: []
  m_PositionCurves: []
  m_ScaleCurves: []
  m_FloatCurves: []
  m_PPtrCurves:
  - curve:
    - time: 0
      value: {fileID: 21300000, guid: 787b3975428835345bc77aff563da259, type: 3}
    - time: 0.033333335
      value: {fileID: 21300000, guid: c55995f519ba0924a82aad9f0c2570e6, type: 3}
    - time: 0.06666667
      value: {fileID: 21300000, guid: 9c03bfc2daad55a4caaf30a93025298e, type: 3}
    - time: 0.1
      value: {fileID: 21300000, guid: 0cf901e489595f641827a0180b1b9988, type: 3}
    - time: 0.13333334
      value: {fileID: 21300000, guid: dd530a205353d8e45b7b7b3093820588, type: 3}
    - time: 0.16666667
      value: {fileID: 21300000, guid: 7dd165ab1e8410743b8d5b9f2af3c3be, type: 3}
    - time: 0.2
      value: {fileID: 21300000, guid: b354677fd5ffa384882734e6a04f5d8f, type: 3}
    - time: 0.23333333
      value: {fileID: 21300000, guid: 7d976b2128eac0e4e8812a9225147b4e, type: 3}
    - time: 0.26666668
      value: {fileID: 21300000, guid: 64c61974ef2b6b643a2b53361af8c346, type: 3}
    - time: 0.3
      value: {fileID: 21300000, guid: f400774a49086ad469629988f99a77b9, type: 3}
    - time: 0.33333334
      value: {fileID: 21300000, guid: 2ac7520586b265c42aed04271c0b6192, type: 3}
    - time: 0.36666667
      value: {fileID: 21300000, guid: 0a140e0f613675640905f1e748c6e6c8, type: 3}
    - time: 0.4
      value: {fileID: 21300000, guid: 1e08f276caff15449a50d939f955bcef, type: 3}
    - time: 0.43333334
      value: {fileID: 21300000, guid: 29920fa66f1a43a43a971952de1fae7d, type: 3}
    - time: 0.46666667
      value: {fileID: 21300000, guid: d0971fbb00b7e9a488e667d340f30bc1, type: 3}
    - time: 0.5
      value: {fileID: 21300000, guid: fd02085e707b05b44ac441c93dd1fb92, type: 3}
    - time: 0.53333336
      value: {fileID: 21300000, guid: 6438e59e13134b448b3129a14d539fdb, type: 3}
    - time: 0.56666666
      value: {fileID: 21300000, guid: b9be9b418869bda46afd609240cc7dbe, type: 3}
    - time: 0.6
      value: {fileID: 21300000, guid: fdb2fec1354672e4c9903cdad5c25317, type: 3}
    - time: 0.6333333
      value: {fileID: 21300000, guid: eab7dea6f2df5a84d9ed0ebb81b9d336, type: 3}
    - time: 0.6666667
      value: {fileID: 21300000, guid: b3018de6bf592a74799ebcb3cce4e835, type: 3}
    - time: 0.7
      value: {fileID: 21300000, guid: 8a5c620117ec6944ab32bcb73bed31cd, type: 3}
    - time: 0.73333335
      value: {fileID: 21300000, guid: 37461976505a99a4da9da680fb62a5a3, type: 3}
    - time: 0.76666665
      value: {fileID: 21300000, guid: 0ef15347f5d959c469196664fee581b2, type: 3}
    - time: 0.8
      value: {fileID: 21300000, guid: 8acba500a5146ab469b896b5594b72c2, type: 3}
    attribute: m_Sprite
    path: 
    classID: 212
    script: {fileID: 0}
  m_SampleRate: 60
  m_WrapMode: 0
  m_Bounds:
    m_Center: {x: 0, y: 0, z: 0}
    m_Extent: {x: 0, y: 0, z: 0}
  m_ClipBindingConstant:
    genericBindings:
    - serializedVersion: 2
      path: 0
      attribute: 0
      script: {fileID: 0}
      typeID: 212
      customType: 23
      isPPtrCurve: 1
    pptrCurveMapping:
    - {fileID: 21300000, guid: 787b3975428835345bc77aff563da259, type: 3}
    - {fileID: 21300000, guid: c55995f519ba0924a82aad9f0c2570e6, type: 3}
    - {fileID: 21300000, guid: 9c03bfc2daad55a4caaf30a93025298e, type: 3}
    - {fileID: 21300000, guid: 0cf901e489595f641827a0180b1b9988, type: 3}
    - {fileID: 21300000, guid: dd530a205353d8e45b7b7b3093820588, type: 3}
    - {fileID: 21300000, guid: 7dd165ab1e8410743b8d5b9f2af3c3be, type: 3}
    - {fileID: 21300000, guid: b354677fd5ffa384882734e6a04f5d8f, type: 3}
    - {fileID: 21300000, guid: 7d976b2128eac0e4e8812a9225147b4e, type: 3}
    - {fileID: 21300000, guid: 64c61974ef2b6b643a2b53361af8c346, type: 3}
    - {fileID: 21300000, guid: f400774a49086ad469629988f99a77b9, type: 3}
    - {fileID: 21300000, guid: 2ac7520586b265c42aed04271c0b6192, type: 3}
    - {fileID: 21300000, guid: 0a140e0f613675640905f1e748c6e6c8, type: 3}
    - {fileID: 21300000, guid: 1e08f276caff15449a50d939f955bcef, type: 3}
    - {fileID: 21300000, guid: 29920fa66f1a43a43a971952de1fae7d, type: 3}
    - {fileID: 21300000, guid: d0971fbb00b7e9a488e667d340f30bc1, type: 3}
    - {fileID: 21300000, guid: fd02085e707b05b44ac441c93dd1fb92, type: 3}
    - {fileID: 21300000, guid: 6438e59e13134b448b3129a14d539fdb, type: 3}
    - {fileID: 21300000, guid: b9be9b418869bda46afd609240cc7dbe, type: 3}
    - {fileID: 21300000, guid: fdb2fec1354672e4c9903cdad5c25317, type: 3}
    - {fileID: 21300000, guid: eab7dea6f2df5a84d9ed0ebb81b9d336, type: 3}
    - {fileID: 21300000, guid: b3018de6bf592a74799ebcb3cce4e835, type: 3}
    - {fileID: 21300000, guid: 8a5c620117ec6944ab32bcb73bed31cd, type: 3}
    - {fileID: 21300000, guid: 37461976505a99a4da9da680fb62a5a3, type: 3}
    - {fileID: 21300000, guid: 0ef15347f5d959c469196664fee581b2, type: 3}
    - {fileID: 21300000, guid: 8acba500a5146ab469b896b5594b72c2, type: 3}
  m_AnimationClipSettings:
    serializedVersion: 2
    m_AdditiveReferencePoseClip: {fileID: 0}
    m_AdditiveReferencePoseTime: 0
    m_StartTime: 0
    m_StopTime: 0.81666666
    m_OrientationOffsetY: 0
    m_Level: 0
    m_CycleOffset: 0
    m_HasAdditiveReferencePose: 0
    m_LoopTime: 1
    m_LoopBlend: 0
    m_LoopBlendOrientation: 0
    m_LoopBlendPositionY: 0
    m_LoopBlendPositionXZ: 0
    m_KeepOriginalOrientation: 0
    m_KeepOriginalPositionY: 1
    m_KeepOriginalPositionXZ: 0
    m_HeightFromFeet: 0
    m_Mirror: 0
  m_EditorCurves: []
  m_EulerEditorCurves: []
  m_HasGenericRootTransform: 0
  m_HasMotionFloatCurves: 0
  m_Events: []
