%YAML 1.1
%TAG !u! tag:unity3d.com,2011:
--- !u!74 &7400000
AnimationClip:
  m_ObjectHideFlags: 0
  m_CorrespondingSourceObject: {fileID: 0}
  m_PrefabInstance: {fileID: 0}
  m_PrefabAsset: {fileID: 0}
  m_Name: GhostMoveDown
  serializedVersion: 6
  m_Legacy: 0
  m_Compressed: 0
  m_UseHighQualityCurve: 1
  m_RotationCurves: []
  m_CompressedRotationCurves: []
  m_EulerCurves: []
  m_PositionCurves: []
  m_ScaleCurves: []
  m_FloatCurves: []
  m_PPtrCurves:
  - curve:
    - time: 0
      value: {fileID: 21300000, guid: b2b86f31d01ea604c96541a258f499c6, type: 3}
    - time: 0.033333335
      value: {fileID: 21300000, guid: ea3c3d8f562f3634397f4bf5d5d0f144, type: 3}
    - time: 0.06666667
      value: {fileID: 21300000, guid: 6ba8257194b3d2445bedb88ad53d029b, type: 3}
    - time: 0.1
      value: {fileID: 21300000, guid: e5ca7ba74765ac44581517e63fbf2684, type: 3}
    - time: 0.13333334
      value: {fileID: 21300000, guid: 1f99b859f4e8f924099064324b278ad9, type: 3}
    - time: 0.16666667
      value: {fileID: 21300000, guid: 63f492a3dff68e14f9874d89c0dc6229, type: 3}
    - time: 0.2
      value: {fileID: 21300000, guid: aca4f556df1ee53479c12617b44fcf3e, type: 3}
    - time: 0.23333333
      value: {fileID: 21300000, guid: fe35259061916fa44a4fc729aebf2bac, type: 3}
    - time: 0.26666668
      value: {fileID: 21300000, guid: e3e51a52d76f011408f355419efdd17d, type: 3}
    - time: 0.3
      value: {fileID: 21300000, guid: 7b279d117dd5ea74a9e07ce9f2d2ac0b, type: 3}
    - time: 0.33333334
      value: {fileID: 21300000, guid: 72754914be34e28459b3ef3229d4542b, type: 3}
    - time: 0.36666667
      value: {fileID: 21300000, guid: 5541d7280d6fa794891d92736728465a, type: 3}
    - time: 0.4
      value: {fileID: 21300000, guid: a567dbbfcf51d10449de74291ae42269, type: 3}
    - time: 0.43333334
      value: {fileID: 21300000, guid: 5683255395cd9764381a5d6a656cd6b2, type: 3}
    - time: 0.46666667
      value: {fileID: 21300000, guid: a49b858c68d43e14e97fe752219e61e9, type: 3}
    - time: 0.5
      value: {fileID: 21300000, guid: 05ab3f0fcb80aff42806718d34253427, type: 3}
    - time: 0.53333336
      value: {fileID: 21300000, guid: e584ae17b8772a845b43bc26735307cf, type: 3}
    - time: 0.56666666
      value: {fileID: 21300000, guid: 01fa501e1b9cc3c46a8a3c3be8e6c841, type: 3}
    - time: 0.6
      value: {fileID: 21300000, guid: 846c5f82c9a9d904ead47c9e151b42e0, type: 3}
    - time: 0.6333333
      value: {fileID: 21300000, guid: 0ad717b47160f1248a21ea83849a47b9, type: 3}
    - time: 0.6666667
      value: {fileID: 21300000, guid: 60c8d2fdf34601f45bc497cf364bc2b3, type: 3}
    - time: 0.7
      value: {fileID: 21300000, guid: 2c7b0b6d70550d042b9532ba7dc1f825, type: 3}
    - time: 0.73333335
      value: {fileID: 21300000, guid: c99c5ab4406369a4ba71e8e52318b2ce, type: 3}
    - time: 0.76666665
      value: {fileID: 21300000, guid: b670fa3e06bb810478be9ba67003152b, type: 3}
    - time: 0.8
      value: {fileID: 21300000, guid: da48f5ebf167a36429e34d189259cbb0, type: 3}
    attribute: m_Sprite
    path: 
    classID: 212
    script: {fileID: 0}
  m_SampleRate: 60
  m_WrapMode: 0
  m_Bounds:
    m_Center: {x: 0, y: 0, z: 0}
    m_Extent: {x: 0, y: 0, z: 0}
  m_ClipBindingConstant:
    genericBindings:
    - serializedVersion: 2
      path: 0
      attribute: 0
      script: {fileID: 0}
      typeID: 212
      customType: 23
      isPPtrCurve: 1
    pptrCurveMapping:
    - {fileID: 21300000, guid: b2b86f31d01ea604c96541a258f499c6, type: 3}
    - {fileID: 21300000, guid: ea3c3d8f562f3634397f4bf5d5d0f144, type: 3}
    - {fileID: 21300000, guid: 6ba8257194b3d2445bedb88ad53d029b, type: 3}
    - {fileID: 21300000, guid: e5ca7ba74765ac44581517e63fbf2684, type: 3}
    - {fileID: 21300000, guid: 1f99b859f4e8f924099064324b278ad9, type: 3}
    - {fileID: 21300000, guid: 63f492a3dff68e14f9874d89c0dc6229, type: 3}
    - {fileID: 21300000, guid: aca4f556df1ee53479c12617b44fcf3e, type: 3}
    - {fileID: 21300000, guid: fe35259061916fa44a4fc729aebf2bac, type: 3}
    - {fileID: 21300000, guid: e3e51a52d76f011408f355419efdd17d, type: 3}
    - {fileID: 21300000, guid: 7b279d117dd5ea74a9e07ce9f2d2ac0b, type: 3}
    - {fileID: 21300000, guid: 72754914be34e28459b3ef3229d4542b, type: 3}
    - {fileID: 21300000, guid: 5541d7280d6fa794891d92736728465a, type: 3}
    - {fileID: 21300000, guid: a567dbbfcf51d10449de74291ae42269, type: 3}
    - {fileID: 21300000, guid: 5683255395cd9764381a5d6a656cd6b2, type: 3}
    - {fileID: 21300000, guid: a49b858c68d43e14e97fe752219e61e9, type: 3}
    - {fileID: 21300000, guid: 05ab3f0fcb80aff42806718d34253427, type: 3}
    - {fileID: 21300000, guid: e584ae17b8772a845b43bc26735307cf, type: 3}
    - {fileID: 21300000, guid: 01fa501e1b9cc3c46a8a3c3be8e6c841, type: 3}
    - {fileID: 21300000, guid: 846c5f82c9a9d904ead47c9e151b42e0, type: 3}
    - {fileID: 21300000, guid: 0ad717b47160f1248a21ea83849a47b9, type: 3}
    - {fileID: 21300000, guid: 60c8d2fdf34601f45bc497cf364bc2b3, type: 3}
    - {fileID: 21300000, guid: 2c7b0b6d70550d042b9532ba7dc1f825, type: 3}
    - {fileID: 21300000, guid: c99c5ab4406369a4ba71e8e52318b2ce, type: 3}
    - {fileID: 21300000, guid: b670fa3e06bb810478be9ba67003152b, type: 3}
    - {fileID: 21300000, guid: da48f5ebf167a36429e34d189259cbb0, type: 3}
  m_AnimationClipSettings:
    serializedVersion: 2
    m_AdditiveReferencePoseClip: {fileID: 0}
    m_AdditiveReferencePoseTime: 0
    m_StartTime: 0
    m_StopTime: 0.81666666
    m_OrientationOffsetY: 0
    m_Level: 0
    m_CycleOffset: 0
    m_HasAdditiveReferencePose: 0
    m_LoopTime: 1
    m_LoopBlend: 0
    m_LoopBlendOrientation: 0
    m_LoopBlendPositionY: 0
    m_LoopBlendPositionXZ: 0
    m_KeepOriginalOrientation: 0
    m_KeepOriginalPositionY: 1
    m_KeepOriginalPositionXZ: 0
    m_HeightFromFeet: 0
    m_Mirror: 0
  m_EditorCurves: []
  m_EulerEditorCurves: []
  m_HasGenericRootTransform: 0
  m_HasMotionFloatCurves: 0
  m_Events: []
