%YAML 1.1
%TAG !u! tag:unity3d.com,2011:
--- !u!74 &7400000
AnimationClip:
  m_ObjectHideFlags: 0
  m_CorrespondingSourceObject: {fileID: 0}
  m_PrefabInstance: {fileID: 0}
  m_PrefabAsset: {fileID: 0}
  m_Name: LiaronMoveUpRight
  serializedVersion: 6
  m_Legacy: 0
  m_Compressed: 0
  m_UseHighQualityCurve: 1
  m_RotationCurves: []
  m_CompressedRotationCurves: []
  m_EulerCurves: []
  m_PositionCurves: []
  m_ScaleCurves: []
  m_FloatCurves: []
  m_PPtrCurves:
  - curve:
    - time: 0
      value: {fileID: 21300000, guid: 33ca2335d85ad2b40bd038783872eae5, type: 3}
    - time: 0.033333335
      value: {fileID: 21300000, guid: d9031f96add491044aabfc63ef76d451, type: 3}
    - time: 0.06666667
      value: {fileID: 21300000, guid: a57397555fe7b3a48ba06171dc7a0850, type: 3}
    - time: 0.1
      value: {fileID: 21300000, guid: 92cb8069a9b7c0f4598813468bf9a7d1, type: 3}
    - time: 0.13333334
      value: {fileID: 21300000, guid: f5ed0f3d85095524daee3fa9aa6a683f, type: 3}
    - time: 0.16666667
      value: {fileID: 21300000, guid: a7e53f39bf4600c4a95bdc1bb4171ec3, type: 3}
    - time: 0.2
      value: {fileID: 21300000, guid: 5ce9737399c468a4ea2d049403ba3bb2, type: 3}
    - time: 0.23333333
      value: {fileID: 21300000, guid: f4de8273ee35266439480b7ef2660a81, type: 3}
    - time: 0.26666668
      value: {fileID: 21300000, guid: fdf91e68f216c4b4bba6a99040ff83a5, type: 3}
    - time: 0.3
      value: {fileID: 21300000, guid: c05c0e34ea5ca714091d7691f4774b16, type: 3}
    - time: 0.33333334
      value: {fileID: 21300000, guid: 80e0ae9e998781f449b7dee73ab8014d, type: 3}
    - time: 0.36666667
      value: {fileID: 21300000, guid: 0021516e8a1f8c147a5466b6592d4df5, type: 3}
    - time: 0.4
      value: {fileID: 21300000, guid: 6915b2dea3e4438449fbcdfd15ac2aff, type: 3}
    - time: 0.43333334
      value: {fileID: 21300000, guid: 8646bcabcce7c3b42a8f0ab05e9ff6b8, type: 3}
    - time: 0.46666667
      value: {fileID: 21300000, guid: 4ee3c36cd71789849bd7deb887352308, type: 3}
    - time: 0.5
      value: {fileID: 21300000, guid: 3e7fb0cd17f06df4a9fbc949f68645ff, type: 3}
    - time: 0.53333336
      value: {fileID: 21300000, guid: 49e5222b50d1f6746afbe2e7fa3072d6, type: 3}
    - time: 0.56666666
      value: {fileID: 21300000, guid: 3e37da8ba02a1bf4d945310d13fd1339, type: 3}
    - time: 0.6
      value: {fileID: 21300000, guid: aa369b99acaba7d4aa3c0562422b5515, type: 3}
    - time: 0.6333333
      value: {fileID: 21300000, guid: 4329e7406225b2847a1629f23fc651a4, type: 3}
    - time: 0.6666667
      value: {fileID: 21300000, guid: 97246428321a64a49aed8ee6e6e18aea, type: 3}
    - time: 0.7
      value: {fileID: 21300000, guid: 120263c2acc2eca4fa718a7f79bbfa2a, type: 3}
    - time: 0.73333335
      value: {fileID: 21300000, guid: eca716c983a66894b9acf3ce21114fcd, type: 3}
    - time: 0.76666665
      value: {fileID: 21300000, guid: 4ad10f9f2c035f4429b91e00686f3625, type: 3}
    - time: 0.8
      value: {fileID: 21300000, guid: 041fccc1a13819d499cdd3185aef7946, type: 3}
    attribute: m_Sprite
    path: 
    classID: 212
    script: {fileID: 0}
  m_SampleRate: 60
  m_WrapMode: 0
  m_Bounds:
    m_Center: {x: 0, y: 0, z: 0}
    m_Extent: {x: 0, y: 0, z: 0}
  m_ClipBindingConstant:
    genericBindings:
    - serializedVersion: 2
      path: 0
      attribute: 0
      script: {fileID: 0}
      typeID: 212
      customType: 23
      isPPtrCurve: 1
    pptrCurveMapping:
    - {fileID: 21300000, guid: 33ca2335d85ad2b40bd038783872eae5, type: 3}
    - {fileID: 21300000, guid: d9031f96add491044aabfc63ef76d451, type: 3}
    - {fileID: 21300000, guid: a57397555fe7b3a48ba06171dc7a0850, type: 3}
    - {fileID: 21300000, guid: 92cb8069a9b7c0f4598813468bf9a7d1, type: 3}
    - {fileID: 21300000, guid: f5ed0f3d85095524daee3fa9aa6a683f, type: 3}
    - {fileID: 21300000, guid: a7e53f39bf4600c4a95bdc1bb4171ec3, type: 3}
    - {fileID: 21300000, guid: 5ce9737399c468a4ea2d049403ba3bb2, type: 3}
    - {fileID: 21300000, guid: f4de8273ee35266439480b7ef2660a81, type: 3}
    - {fileID: 21300000, guid: fdf91e68f216c4b4bba6a99040ff83a5, type: 3}
    - {fileID: 21300000, guid: c05c0e34ea5ca714091d7691f4774b16, type: 3}
    - {fileID: 21300000, guid: 80e0ae9e998781f449b7dee73ab8014d, type: 3}
    - {fileID: 21300000, guid: 0021516e8a1f8c147a5466b6592d4df5, type: 3}
    - {fileID: 21300000, guid: 6915b2dea3e4438449fbcdfd15ac2aff, type: 3}
    - {fileID: 21300000, guid: 8646bcabcce7c3b42a8f0ab05e9ff6b8, type: 3}
    - {fileID: 21300000, guid: 4ee3c36cd71789849bd7deb887352308, type: 3}
    - {fileID: 21300000, guid: 3e7fb0cd17f06df4a9fbc949f68645ff, type: 3}
    - {fileID: 21300000, guid: 49e5222b50d1f6746afbe2e7fa3072d6, type: 3}
    - {fileID: 21300000, guid: 3e37da8ba02a1bf4d945310d13fd1339, type: 3}
    - {fileID: 21300000, guid: aa369b99acaba7d4aa3c0562422b5515, type: 3}
    - {fileID: 21300000, guid: 4329e7406225b2847a1629f23fc651a4, type: 3}
    - {fileID: 21300000, guid: 97246428321a64a49aed8ee6e6e18aea, type: 3}
    - {fileID: 21300000, guid: 120263c2acc2eca4fa718a7f79bbfa2a, type: 3}
    - {fileID: 21300000, guid: eca716c983a66894b9acf3ce21114fcd, type: 3}
    - {fileID: 21300000, guid: 4ad10f9f2c035f4429b91e00686f3625, type: 3}
    - {fileID: 21300000, guid: 041fccc1a13819d499cdd3185aef7946, type: 3}
  m_AnimationClipSettings:
    serializedVersion: 2
    m_AdditiveReferencePoseClip: {fileID: 0}
    m_AdditiveReferencePoseTime: 0
    m_StartTime: 0
    m_StopTime: 0.81666666
    m_OrientationOffsetY: 0
    m_Level: 0
    m_CycleOffset: 0
    m_HasAdditiveReferencePose: 0
    m_LoopTime: 1
    m_LoopBlend: 0
    m_LoopBlendOrientation: 0
    m_LoopBlendPositionY: 0
    m_LoopBlendPositionXZ: 0
    m_KeepOriginalOrientation: 0
    m_KeepOriginalPositionY: 1
    m_KeepOriginalPositionXZ: 0
    m_HeightFromFeet: 0
    m_Mirror: 0
  m_EditorCurves: []
  m_EulerEditorCurves: []
  m_HasGenericRootTransform: 0
  m_HasMotionFloatCurves: 0
  m_Events: []
